{
    "db_host": "mariadb",
    "redis_cache": "redis://redis-cache:6379",
    "redis_queue": "redis://redis-queue:6379",
    "redis_socketio": "redis://redis-socketio:6379",
    "socketio_port": 9000
}
